<svg xmlns="http://www.w3.org/2000/svg" viewBox="0 0 16 16">
  <style type="text/css">
    path { fill:#4d4d4d;stroke-width:0 }
  </style>
  <path d="M 3 8 l 5 -5 v 2 l -3 3 l 3 3 v 2 l -5 -5 z" />
  <path d="M 8 8 l 5 -5 v 2 l -3 3 l 3 3 v 2 l -5 -5 z" />
</svg>
