<svg xmlns="http://www.w3.org/2000/svg" viewBox="0 0 16 16">
  <style type="text/css">
    path { fill:#f2f2f2;stroke-width:0 }
  </style>
  <path d="M 8 3 l -5 5 h 2 l 3 -3 l 3 3 h 2 l -5 -5 z" />
  <path d="M 8 7 l -5 5 h 2 l 3 -3 l 3 3 h 2 l -5 -5 z" />
</svg>
